412
Fe12-Cu20
P -1.770607 4.59739 3.512392
P -1.094022 5.682723 1.737668
C -0.722551 7.103972 5.541773
C -1.169523 7.818804 4.3667
C -1.601965 6.517234 6.595684
C -2.589294 8.10611 4.006517
H -1.128317 5.670441 7.108933
H -1.818665 7.279575 7.359807
H -2.566494 6.181576 6.192753
H -2.724124 8.250095 2.926886
H -3.271215 7.312001 4.337755
H -2.912008 9.035403 4.500737
P -3.512392 1.770607 4.59739
P -1.737668 1.094022 5.682723
C -5.541773 0.722551 7.103972
C -4.3667 1.169523 7.818804
C -6.595684 1.601965 6.517234
C -4.006517 2.589294 8.10611
H -7.108933 1.128317 5.670441
H -7.359807 1.818665 7.279575
H -6.192753 2.566494 6.181576
H -2.926886 2.724124 8.250095
H -4.337755 3.271215 7.312001
H -4.500737 2.912008 9.035403
P 3.512392 1.770607 4.59739
P 1.737668 1.094022 5.682723
C 5.541773 0.722551 7.103972
C 4.3667 1.169523 7.818804
C 6.595684 1.601965 6.517234
C 4.006517 2.589294 8.10611
H 7.108933 1.128317 5.670441
H 7.359807 1.818665 7.279575
H 6.192753 2.566494 6.181576
H 2.926886 2.724124 8.250095
H 4.337755 3.271215 7.312001
H 4.500737 2.912008 9.035403
Cu -4.000867 4.000867 4.000867
Cl -5.280192 5.280192 5.280192
P -4.59739 3.512392 1.770607
P -5.682723 1.737668 1.094022
C -7.103972 5.541773 0.722551
C -7.818804 4.3667 1.169523
C -6.517234 6.595684 1.601965
C -8.10611 4.006517 2.589294
H -5.670441 7.108933 1.128317
H -7.279575 7.359807 1.818665
H -6.181576 6.192753 2.566494
H -8.250095 2.926886 2.724124
H -7.312001 4.337755 3.271215
H -9.035403 4.500737 2.912008
Cu 0 2.486702 6.473867
Cl 0 3.273849 8.545499
Fe 0 6.208554 3.827311
P 0 3.925907 4.608169
P 1.770607 4.59739 3.512392
P 1.094022 5.682723 1.737668
C 0.722551 7.103972 5.541773
C 1.169523 7.818804 4.3667
C 0 8.266491 3.644194
C 1.601965 6.517234 6.595684
C 2.589294 8.10611 4.006517
C 0 9.09242 2.400608
H 1.128317 5.670441 7.108933
H 1.818665 7.279575 7.359807
H 2.566494 6.181576 6.192753
H 2.724124 8.250095 2.926886
H 3.271215 7.312001 4.337755
H 2.912008 9.035403 4.500737
H -0.889987 8.915301 1.783353
H 0.889987 8.915301 1.783353
H 0 10.159904 2.669832
P -1.770607 -4.59739 3.512392
P -1.094022 -5.682723 1.737668
C -0.722551 -7.103972 5.541773
C -1.169523 -7.818804 4.3667
C -1.601965 -6.517234 6.595684
C -2.589294 -8.10611 4.006517
H -1.128317 -5.670441 7.108933
H -1.818665 -7.279575 7.359807
H -2.566494 -6.181576 6.192753
H -2.724124 -8.250095 2.926886
H -3.271215 -7.312001 4.337755
H -2.912008 -9.035403 4.500737
P 4.59739 3.512392 -1.770607
P 5.682723 1.737668 -1.094022
C 7.103972 5.541773 -0.722551
C 7.818804 4.3667 -1.169523
C 6.517234 6.595684 -1.601965
C 8.10611 4.006517 -2.589294
H 5.670441 7.108933 -1.128317
H 7.279575 7.359807 -1.818665
H 6.181576 6.192753 -2.566494
H 8.250095 2.926886 -2.724124
H 7.312001 4.337755 -3.271215
H 9.035403 4.500737 -2.912008
Cu 0 -2.486702 6.473867
Cl 0 -3.273849 8.545499
Fe 0 -6.208554 3.827311
P 0 -3.925907 4.608169
P 1.770607 -4.59739 3.512392
P 1.094022 -5.682723 1.737668
C 0.722551 -7.103972 5.541773
C 1.169523 -7.818804 4.3667
C 0 -8.266491 3.644194
C 1.601965 -6.517234 6.595684
C 2.589294 -8.10611 4.006517
C 0 -9.09242 2.400608
H 1.128317 -5.670441 7.108933
H 1.818665 -7.279575 7.359807
H 2.566494 -6.181576 6.192753
H 2.724124 -8.250095 2.926886
H 3.271215 -7.312001 4.337755
H 2.912008 -9.035403 4.500737
H -0.889987 -8.915301 1.783353
H 0.889987 -8.915301 1.783353
H 0 -10.159904 2.669832
Cu -2.486702 6.473867 0
Cl -3.273849 8.545499 0
Fe -6.208554 3.827311 0
P -3.925907 4.608169 0
P -4.59739 3.512392 -1.770607
P -5.682723 1.737668 -1.094022
C -7.103972 5.541773 -0.722551
C -7.818804 4.3667 -1.169523
C -8.266491 3.644194 0
C -6.517234 6.595684 -1.601965
C -8.10611 4.006517 -2.589294
C -9.09242 2.400608 0
H -5.670441 7.108933 -1.128317
H -7.279575 7.359807 -1.818665
H -6.181576 6.192753 -2.566494
H -8.250095 2.926886 -2.724124
H -7.312001 4.337755 -3.271215
H -9.035403 4.500737 -2.912008
H -8.915301 1.783353 0.889987
H -8.915301 1.783353 -0.889987
H -10.159904 2.669832 0
P 4.59739 -3.512392 1.770607
P 5.682723 -1.737668 1.094022
C 7.103972 -5.541773 0.722551
C 7.818804 -4.3667 1.169523
C 6.517234 -6.595684 1.601965
C 8.10611 -4.006517 2.589294
H 5.670441 -7.108933 1.128317
H 7.279575 -7.359807 1.818665
H 6.181576 -6.192753 2.566494
H 8.250095 -2.926886 2.724124
H 7.312001 -4.337755 3.271215
H 9.035403 -4.500737 2.912008
Cu 4.000867 4.000867 4.000867
Cu 2.486702 6.473867 0
Cl 5.280192 5.280192 5.280192
Cl 3.273849 8.545499 0
Fe 6.208554 3.827311 0
P 3.925907 4.608169 0
P 4.59739 3.512392 1.770607
P 5.682723 1.737668 1.094022
C 7.103972 5.541773 0.722551
C 7.818804 4.3667 1.169523
C 8.266491 3.644194 0
C 6.517234 6.595684 1.601965
C 8.10611 4.006517 2.589294
C 9.09242 2.400608 0
H 5.670441 7.108933 1.128317
H 7.279575 7.359807 1.818665
H 6.181576 6.192753 2.566494
H 8.250095 2.926886 2.724124
H 7.312001 4.337755 3.271215
H 9.035403 4.500737 2.912008
H 8.915301 1.783353 -0.889987
H 8.915301 1.783353 0.889987
H 10.159904 2.669832 0
Cu -6.473867 0 2.486702
Cl -8.545499 0 3.273849
Fe -3.827311 0 6.208554
P -4.608169 0 3.925907
P -3.512392 -1.770607 4.59739
P -1.737668 -1.094022 5.682723
C -5.541773 -0.722551 7.103972
C -4.3667 -1.169523 7.818804
C -3.644194 0 8.266491
C -6.595684 -1.601965 6.517234
C -4.006517 -2.589294 8.10611
C -2.400608 0 9.09242
H -7.108933 -1.128317 5.670441
H -7.359807 -1.818665 7.279575
H -6.192753 -2.566494 6.181576
H -2.926886 -2.724124 8.250095
H -4.337755 -3.271215 7.312001
H -4.500737 -2.912008 9.035403
H -1.783353 0.889987 8.915301
H -1.783353 -0.889987 8.915301
H -2.669832 0 10.159904
Cu 4.000867 -4.000867 4.000867
Cu 6.473867 0 2.486702
Cl 5.280192 -5.280192 5.280192
Cl 8.545499 0 3.273849
Fe 3.827311 0 6.208554
P 4.608169 0 3.925907
P 3.512392 -1.770607 4.59739
P 1.737668 -1.094022 5.682723
C 5.541773 -0.722551 7.103972
C 4.3667 -1.169523 7.818804
C 3.644194 0 8.266491
C 6.595684 -1.601965 6.517234
C 4.006517 -2.589294 8.10611
C 2.400608 0 9.09242
H 7.108933 -1.128317 5.670441
H 7.359807 -1.818665 7.279575
H 6.192753 -2.566494 6.181576
H 2.926886 -2.724124 8.250095
H 4.337755 -3.271215 7.312001
H 4.500737 -2.912008 9.035403
H 1.783353 0.889987 8.915301
H 1.783353 -0.889987 8.915301
H 2.669832 0 10.159904
Cu -4.000867 -4.000867 4.000867
Cl -5.280192 -5.280192 5.280192
P -4.59739 -3.512392 1.770607
P -5.682723 -1.737668 1.094022
C -7.103972 -5.541773 0.722551
C -7.818804 -4.3667 1.169523
C -6.517234 -6.595684 1.601965
C -8.10611 -4.006517 2.589294
H -5.670441 -7.108933 1.128317
H -7.279575 -7.359807 1.818665
H -6.181576 -6.192753 2.566494
H -8.250095 -2.926886 2.724124
H -7.312001 -4.337755 3.271215
H -9.035403 -4.500737 2.912008
P 3.512392 -1.770607 -4.59739
P 1.737668 -1.094022 -5.682723
C 5.541773 -0.722551 -7.103972
C 4.3667 -1.169523 -7.818804
C 6.595684 -1.601965 -6.517234
C 4.006517 -2.589294 -8.10611
H 7.108933 -1.128317 -5.670441
H 7.359807 -1.818665 -7.279575
H 6.192753 -2.566494 -6.181576
H 2.926886 -2.724124 -8.250095
H 4.337755 -3.271215 -7.312001
H 4.500737 -2.912008 -9.035403
P -3.512392 -1.770607 -4.59739
P -1.737668 -1.094022 -5.682723
C -5.541773 -0.722551 -7.103972
C -4.3667 -1.169523 -7.818804
C -6.595684 -1.601965 -6.517234
C -4.006517 -2.589294 -8.10611
H -7.108933 -1.128317 -5.670441
H -7.359807 -1.818665 -7.279575
H -6.192753 -2.566494 -6.181576
H -2.926886 -2.724124 -8.250095
H -4.337755 -3.271215 -7.312001
H -4.500737 -2.912008 -9.035403
P -1.770607 -4.59739 -3.512392
P -1.094022 -5.682723 -1.737668
C -0.722551 -7.103972 -5.541773
C -1.169523 -7.818804 -4.3667
C -1.601965 -6.517234 -6.595684
C -2.589294 -8.10611 -4.006517
H -1.128317 -5.670441 -7.108933
H -1.818665 -7.279575 -7.359807
H -2.566494 -6.181576 -6.192753
H -2.724124 -8.250095 -2.926886
H -3.271215 -7.312001 -4.337755
H -2.912008 -9.035403 -4.500737
Cu 2.486702 -6.473867 0
Cl 3.273849 -8.545499 0
Fe 6.208554 -3.827311 0
P 3.925907 -4.608169 0
P 4.59739 -3.512392 -1.770607
P 5.682723 -1.737668 -1.094022
C 7.103972 -5.541773 -0.722551
C 7.818804 -4.3667 -1.169523
C 8.266491 -3.644194 0
C 6.517234 -6.595684 -1.601965
C 8.10611 -4.006517 -2.589294
C 9.09242 -2.400608 0
H 5.670441 -7.108933 -1.128317
H 7.279575 -7.359807 -1.818665
H 6.181576 -6.192753 -2.566494
H 8.250095 -2.926886 -2.724124
H 7.312001 -4.337755 -3.271215
H 9.035403 -4.500737 -2.912008
H 8.915301 -1.783353 0.889987
H 8.915301 -1.783353 -0.889987
H 10.159904 -2.669832 0
Cu 6.473867 0 -2.486702
Cl 8.545499 0 -3.273849
Fe 3.827311 0 -6.208554
P 4.608169 0 -3.925907
P 3.512392 1.770607 -4.59739
P 1.737668 1.094022 -5.682723
C 5.541773 0.722551 -7.103972
C 4.3667 1.169523 -7.818804
C 3.644194 0 -8.266491
C 6.595684 1.601965 -6.517234
C 4.006517 2.589294 -8.10611
C 2.400608 0 -9.09242
H 7.108933 1.128317 -5.670441
H 7.359807 1.818665 -7.279575
H 6.192753 2.566494 -6.181576
H 2.926886 2.724124 -8.250095
H 4.337755 3.271215 -7.312001
H 4.500737 2.912008 -9.035403
H 1.783353 -0.889987 -8.915301
H 1.783353 0.889987 -8.915301
H 2.669832 0 -10.159904
Cu 4.000867 -4.000867 -4.000867
Cu 0 -2.486702 -6.473867
Cl 5.280192 -5.280192 -5.280192
Cl 0 -3.273849 -8.545499
Fe 0 -6.208554 -3.827311
P 0 -3.925907 -4.608169
P 1.770607 -4.59739 -3.512392
P 1.094022 -5.682723 -1.737668
C 0.722551 -7.103972 -5.541773
C 1.169523 -7.818804 -4.3667
C 0 -8.266491 -3.644194
C 1.601965 -6.517234 -6.595684
C 2.589294 -8.10611 -4.006517
C 0 -9.09242 -2.400608
H 1.128317 -5.670441 -7.108933
H 1.818665 -7.279575 -7.359807
H 2.566494 -6.181576 -6.192753
H 2.724124 -8.250095 -2.926886
H 3.271215 -7.312001 -4.337755
H 2.912008 -9.035403 -4.500737
H -0.889987 -8.915301 -1.783353
H 0.889987 -8.915301 -1.783353
H 0 -10.159904 -2.669832
Cu -4.000867 -4.000867 -4.000867
Cu -2.486702 -6.473867 0
Cl -5.280192 -5.280192 -5.280192
Cl -3.273849 -8.545499 0
Fe -6.208554 -3.827311 0
P -3.925907 -4.608169 0
P -4.59739 -3.512392 -1.770607
P -5.682723 -1.737668 -1.094022
C -7.103972 -5.541773 -0.722551
C -7.818804 -4.3667 -1.169523
C -8.266491 -3.644194 0
C -6.517234 -6.595684 -1.601965
C -8.10611 -4.006517 -2.589294
C -9.09242 -2.400608 0
H -5.670441 -7.108933 -1.128317
H -7.279575 -7.359807 -1.818665
H -6.181576 -6.192753 -2.566494
H -8.250095 -2.926886 -2.724124
H -7.312001 -4.337755 -3.271215
H -9.035403 -4.500737 -2.912008
H -8.915301 -1.783353 0.889987
H -8.915301 -1.783353 -0.889987
H -10.159904 -2.669832 0
Cu 4.000867 4.000867 -4.000867
Cl 5.280192 5.280192 -5.280192
P 1.770607 4.59739 -3.512392
P 1.094022 5.682723 -1.737668
C 0.722551 7.103972 -5.541773
C 1.169523 7.818804 -4.3667
C 1.601965 6.517234 -6.595684
C 2.589294 8.10611 -4.006517
H 1.128317 5.670441 -7.108933
H 1.818665 7.279575 -7.359807
H 2.566494 6.181576 -6.192753
H 2.724124 8.250095 -2.926886
H 3.271215 7.312001 -4.337755
H 2.912008 9.035403 -4.500737
Cu -6.473867 0 -2.486702
Cl -8.545499 0 -3.273849
Fe -3.827311 0 -6.208554
P -4.608169 0 -3.925907
P -3.512392 1.770607 -4.59739
P -1.737668 1.094022 -5.682723
C -5.541773 0.722551 -7.103972
C -4.3667 1.169523 -7.818804
C -3.644194 0 -8.266491
C -6.595684 1.601965 -6.517234
C -4.006517 2.589294 -8.10611
C -2.400608 0 -9.09242
H -7.108933 1.128317 -5.670441
H -7.359807 1.818665 -7.279575
H -6.192753 2.566494 -6.181576
H -2.926886 2.724124 -8.250095
H -4.337755 3.271215 -7.312001
H -4.500737 2.912008 -9.035403
H -1.783353 -0.889987 -8.915301
H -1.783353 0.889987 -8.915301
H -2.669832 0 -10.159904
Cu -4.000867 4.000867 -4.000867
Cu 0 2.486702 -6.473867
Cl -5.280192 5.280192 -5.280192
Cl 0 3.273849 -8.545499
Fe 0 6.208554 -3.827311
P 0 3.925907 -4.608169
P -1.770607 4.59739 -3.512392
P -1.094022 5.682723 -1.737668
C -0.722551 7.103972 -5.541773
C -1.169523 7.818804 -4.3667
C 0 8.266491 -3.644194
C -1.601965 6.517234 -6.595684
C -2.589294 8.10611 -4.006517
C 0 9.09242 -2.400608
H -1.128317 5.670441 -7.108933
H -1.818665 7.279575 -7.359807
H -2.566494 6.181576 -6.192753
H -2.724124 8.250095 -2.926886
H -3.271215 7.312001 -4.337755
H -2.912008 9.035403 -4.500737
H 0.889987 8.915301 -1.783353
H -0.889987 8.915301 -1.783353
H 0 10.159904 -2.669832
